Example analysis • omnibus
…
# Check if there's any NAs. If missing values exist, get the corresponding row numbers.
naRows(combined)
#> integer(0)

Luckily, we don’t have any missing values.

# We want to check whether there's any discrepancy between the "state" variables from the 2 data frames.
temp <- map2(.x = combined$state, .y = combined$state_name, .f = ~str_equal(.x, .y))

# Save the index of not matched cases
ind <- which(temp == FALSE)

combined %>% slice(ind) %>% select(state, state_name)
#> # A tibble: 135 × 2
#>    state          state_name    
#>    <chr>          <chr>         
#>  1 New York       New-York      
#>  2 North Carolina North-Carolina
#>  3 South Dakota   South-Dakota  
#>  4 New York       New-York      
#>  5 North Carolina North-Carolina
#>  6 North Carolina North-Carolina
#>  7 South Carolina South-Carolina
#>  8 South Dakota   South-Dakota  
#>  9 New Jersey     New-Jersey    
#> 10 West Virginia  West-Virginia 
#> # … with 125 more rows
…
We remove the 4 observations with inconsistent information.

combined <- combined %>% slice(-ind2) %>% select(-state_name)
combined
#> # A tibble: 724 × 10
#>    name      state state…¹ type  degre…² in_st…³ out_o…⁴ early…⁵ mid_c…⁶ stem_…⁷
#>    <chr>     <chr> <chr>   <chr> <chr>     <dbl>   <dbl>   <dbl>   <dbl>   <dbl>
#>  1 Adams St… Colo… CO      Publ… 4 Year     9440   20456   44400   81400       3
#>  2 Adventis… Flor… FL      Priv… 4 Year    15150   15150   51600   89800       5
#>  3 Agnes Sc… Geor… GA      Priv… 4 Year    41160   41160   46000   83600      26
#>  4 Alabama … Alab… AL      Publ… 4 Year    11068   19396   39800   71500      16
#>  5 Alaska P… Alas… AK      Priv… 4 Year    20830   20830   50300   90000       6
#>  6 Albany C… New … NY      Priv… 4 Year    35105   35105   81000  144800       2
#>  7 Albertus… Conn… CT      Priv… 4 Year    32060   32060   49700   85900       2
#>  8 Albion C… Mich… MI      Priv… 4 Year    45775   45775   52100   99300      23
#>  9 Alcorn S… Miss… MS      Publ… 4 Year     7144    7144   40900   69500      19
#> 10 Allen Co… Iowa  IA      Priv… 4 Year    19970   19970   51600   91300       0
#> # … with 714 more rows, and abbreviated variable names ¹​state_code,
#> #   ²​degree_length, ³​in_state_tuition, ⁴​out_of_state_tuition,
#> #   ⁵​early_career_pay, ⁶​mid_career_pay, ⁷​stem_percent

combined %>% count(degree_length)
#> # A tibble: 2 × 2
#>   degree_length     n
#>   <chr>         <int>
#> 1 2 Year            3
#> 2 4 Year          721

We keep only the 4-year schools.

combined <- combined %>% filter(degree_length == "4 Year")
combined
#> # A tibble: 721 × 10
#>    name      state state…¹ type  degre…² in_st…³ out_o…⁴ early…⁵ mid_c…⁶ stem_…⁷
#>    <chr>     <chr> <chr>   <chr> <chr>     <dbl>   <dbl>   <dbl>   <dbl>   <dbl>
#>  1 Adams St… Colo… CO      Publ… 4 Year     9440   20456   44400   81400       3
#>  2 Adventis… Flor… FL      Priv… 4 Year    15150   15150   51600   89800       5
#>  3 Agnes Sc… Geor… GA      Priv… 4 Year    41160   41160   46000   83600      26
#>  4 Alabama … Alab… AL      Publ… 4 Year    11068   19396   39800   71500      16
#>  5 Alaska P… Alas… AK      Priv… 4 Year    20830   20830   50300   90000       6
#>  6 Albany C… New … NY      Priv… 4 Year    35105   35105   81000  144800       2
#>  7 Albertus… Conn… CT      Priv… 4 Year    32060   32060   49700   85900       2
#>  8 Albion C… Mich… MI      Priv… 4 Year    45775   45775   52100   99300      23
#>  9 Alcorn S… Miss… MS      Publ… 4 Year     7144    7144   40900   69500      19
#> 10 Allen Co… Iowa  IA      Priv… 4 Year    19970   19970   51600   91300       0
#> # … with 711 more rows, and abbreviated variable names ¹​state_code,
#> #   ²​degree_length, ³​in_state_tuition, ⁴​out_of_state_tuition,
#> #   ⁵​early_career_pay, ⁶​mid_career_pay, ⁷​stem_percent
…
